[
{
  "add-searchcomponent":{
    "name": "suggest",
    "class": "solr.SuggestComponent",
    "suggester":{
        "name": "mySuggester",
        "dictionaryImpl": "DocumentDictionaryFactory",
        "lookupImpl": "FuzzyLookupFactory",
        "field": "suggest",
        "suggestAnalyzerFieldType": "text_general"
    }
  }
},
{
    "add-requesthandler": {
        "name": "/suggest",
        "class": "solr.SearchHandler",
        "startup": "lazy",
        "defaults": {
            "suggest": true,
            "suggest.count": 20,
            "suggest.dictionary": "mySuggester"
        },
        "components": [
            "suggest"
        ]
    }
}
]
